…
Now that I have the data read in to data frames, I can create a master data
frame by joining them together.


```r
ssc <- left_join(isolates, haplotypes, by = "Haplotype") %>%
	mutate(`Isolate designation` = strsplit(`Isolate designation`, ",")) %>%
	tbl_df() %>%
	unnest() %>%
	select(`Isolate designation`, everything())
ssc
```

```
## # A tibble: 145 x 20
##    `Isolate designation`   MCG Haplotype  Year `State/Province`
##                    <chr> <int>     <chr> <chr>            <chr>
##  1                   100     1         1  2007     North Dakota
##  2                   137     2        2a  2008        Minnesota
##  3                   191     2        2a  2008         Nebraska
##  4                   175     2        2a  2008     North Dakota
##  5                   181     2        2a  2008     North Dakota
##  6                   101     2        2a  2008     North Dakota
##  7                   122     2        2a  2008     North Dakota
##  8                   132     2        2a  2008     North Dakota
##  9                   201     2        2a  2008     South Dakota
## 10                   800     2        2a  2007     North Dakota
## # ... with 135 more rows, and 15 more variables: Host <chr>, `Host common
## #   name` <chr>, `Number of isolates` <int>, `7_2` <int>, `8_3` <int>,
## #   `110_4` <int>, `55_4` <int>, `13_2` <int>, `23_4` <int>, `7_3` <int>,
## #   `5_2` <int>, `17_3` <int>, `12_2` <int>, `92_4` <int>, `106_4` <int>
```
…
