…
```
## # A tibble: 366 × 18
##    Isolate Severity   MCG State Source  Year  Host `110-4` `114-4` `12-2`
##      <chr>    <dbl> <chr> <chr>  <chr> <chr> <chr>   <dbl>   <dbl>  <dbl>
## 1      152      3.9     4    NE         2003    GH     378     371    216
## 2      274      5.4    45    NE         2003    GH     378     359    216
## 3      443      6.3     5    NY         2003    GH     378     367    216
## 4      444      4.4     4    MN    wmn  2003  G122     378     371    216
## 5      445      4.7     4    MN    wmn  2003 Beryl     378     371    216
## 6      446      6.1     3    MI    wmn  2003 Beryl     386     359    216
## 7      447      5.5     5    MI    wmn  2003 Beryl     378     367    222
## 8      448      5.0     3    MI    wmn  2003 Beryl     386     359    216
## 9      449      5.2     3    MI    wmn  2003 Bunsi     386     367    216
## 10     450      5.3     5    MI    wmn  2003 Bunsi     378     367    216
## # ... with 356 more rows, and 8 more variables: `17-3` <dbl>,
## #   `20-3` <dbl>, `5-2` <dbl>, `55-4` <dbl>, `6-2` <dbl>, `7-2` <dbl>,
## #   `8-3` <dbl>, `9-2` <dbl>
```
