…
```
## See spec(...) for full column specifications.
```

```r
dat
```

```
## # A tibble: 366 x 2
##      MCG Severity
##    <int>    <dbl>
##  1     4      3.9
##  2    45      5.4
##  3     5      6.3
##  4     4      4.4
##  5     4      4.7
##  6     3      6.1
##  7     5      5.5
##  8     3      5.0
##  9     3      5.2
## 10     5      5.3
## # ... with 356 more rows
```
…
```r
top_mcg <- dat %>% 
  group_by(MCG) %>%
  summarize(N = n()) %>%
  arrange(desc(N)) %>%
  slice(1:10) %>% 
  inner_join(dat, by = "MCG") %>%
  select(-N) %>%
  mutate(MCG = forcats::fct_inorder(as.character(MCG)))
top_mcg
```

```
## # A tibble: 207 x 2
##       MCG Severity
##    <fctr>    <dbl>
##  1      5      6.3
##  2      5      5.5
##  3      5      5.3
##  4      5      6.0
##  5      5      5.2
##  6      5      5.8
##  7      5      6.2
##  8      5      5.3
##  9      5      4.3
## 10      5      4.5
## # ... with 197 more rows
```
…
