…
```
## # A tibble: 366 × 6
##    iso_st_mcg_org_loc_yr_hst_cult_rep `106-4(H)` `36-4(F)` `5-3(F)`
##                                 <chr>      <int>     <int>    <int>
## 1               152_3.9_4_NE__2003_GH        580       415      328
## 2              274_5.4_45_NE__2003_GH        588       415      328
## 3               443_6.3_5_NY__2003_GH        567       415      308
## 4          444_4.4_4_MN_wmn_2003_G122        580       415      328
## 5         445_4.7_4_MN_wmn_2003_Beryl        580       415      328
## 6         446_6.1_3_MI_wmn_2003_Beryl        567       415      339
## 7         447_5.5_5_MI_wmn_2003_Beryl        567       415      308
## 8           448_5_3_MI_wmn_2003_Beryl        568       414      339
## 9         449_5.2_3_MI_wmn_2003_Bunsi        568       415      339
## 10        450_5.3_5_MI_wmn_2003_Bunsi        568       415      308
## # ... with 356 more rows, and 2 more variables: `50-4(F)` <int>,
## #   `92-4(F)` <int>
```
```r
exsummary <- ex %>% 
  gather(locus, allele, -1) %>% # tidy the data
  group_by(locus, allele) %>%   
  summarize(n = n()) %>%        # summarize by count 
  ungroup() %>%
  group_by(locus) %>%           # group the loci, add the lower and upper alleles,
  mutate(lower = lag(allele), higher = lead(allele)) %>% # and then create new_alleles
  mutate(new_allele = ifelse(n < 3, cromulent_allele(lower, allele, higher), allele)) %>%
  select(locus, new_allele, allele)
exsummary
```

```
## Source: local data frame [71 x 3]
## Groups: locus [5]
## 
##       locus new_allele allele
##       <chr>      <int>  <int>
## 1  106-4(H)        502    501
## 2  106-4(H)        502    502
## 3  106-4(H)        502    503
## 4  106-4(H)        511    511
## 5  106-4(H)        532    532
## 6  106-4(H)        533    533
## 7  106-4(H)        541    540
## 8  106-4(H)        541    541
## 9  106-4(H)        541    542
## 10 106-4(H)        546    546
## # ... with 61 more rows
```
…
