…
```
## # A tibble: 87 × 5
##       MCG  MLGs Samples  Entropy              data
##    <fctr> <int>   <int>    <dbl>            <list>
## 1       5    37      73 3.050136 <tibble [37 × 2]>
## 2      44    19      36 2.568269 <tibble [19 × 2]>
## 3       1    10      15 2.153532 <tibble [10 × 2]>
## 4       4     9      14 1.965237  <tibble [9 × 2]>
## 5       2     9      10 2.163956  <tibble [9 × 2]>
## 6      53     9       9 2.197225  <tibble [9 × 2]>
## 7       3     8       8 2.079442  <tibble [8 × 2]>
## 8       9     8      15 1.599015  <tibble [8 × 2]>
## 9      45     7      16 1.559581  <tibble [7 × 2]>
## 10     16     6       7 1.747868  <tibble [6 × 2]>
## # ... with 77 more rows
```

```r
mlgs
```

```
## # A tibble: 165 × 5
##       MLG  MCGs Samples   Entropy             data
##    <fctr> <int>   <int>     <dbl>           <list>
## 1      25     5      27 0.9796882 <tibble [5 × 2]>
## 2     163     2      15 0.6909233 <tibble [2 × 2]>
## 3      65     2      11 0.3046361 <tibble [2 × 2]>
## 4     140     3      10 1.0296530 <tibble [3 × 2]>
## 5      66     1       8 0.0000000 <tibble [1 × 2]>
## 6     165     3       7 0.7963116 <tibble [3 × 2]>
## 7      78     4       6 1.2424533 <tibble [4 × 2]>
## 8     160     4       5 1.3321790 <tibble [4 × 2]>
## 9     104     2       5 0.5004024 <tibble [2 × 2]>
## 10     75     3       4 1.0397208 <tibble [3 × 2]>
## # ... with 155 more rows
```
…
```
## # A tibble: 87 × 5
##       MCG  MLGs Samples  Entropy              data
##    <fctr> <int>   <int>    <dbl>            <list>
## 1       5    29      73 2.789216 <tibble [29 × 2]>
## 2      44    17      36 2.405295 <tibble [17 × 2]>
## 3       1    10      15 2.153532 <tibble [10 × 2]>
## 4       4     9      14 1.965237  <tibble [9 × 2]>
## 5       2     9      10 2.163956  <tibble [9 × 2]>
## 6       3     8       8 2.079442  <tibble [8 × 2]>
## 7      53     8       9 2.043192  <tibble [8 × 2]>
## 8      45     7      16 1.559581  <tibble [7 × 2]>
## 9       9     7      15 1.506595  <tibble [7 × 2]>
## 10     16     6       7 1.747868  <tibble [6 × 2]>
## # ... with 77 more rows
```

```r
fmlgs
```

```
## # A tibble: 136 × 5
##       MLG  MCGs Samples   Entropy             data
##    <fctr> <int>   <int>     <dbl>           <list>
## 1      25     5      28 0.9569788 <tibble [5 × 2]>
## 2     163     3      16 0.8815323 <tibble [3 × 2]>
## 3     140     4      11 1.2406843 <tibble [4 × 2]>
## 4      65     2      11 0.3046361 <tibble [2 × 2]>
## 5      75     6      10 1.4978661 <tibble [6 × 2]>
## 6       9     2       8 0.3767702 <tibble [2 × 2]>
## 7      66     1       8 0.0000000 <tibble [1 × 2]>
## 8     165     3       7 0.7963116 <tibble [3 × 2]>
## 9     104     2       7 0.6829081 <tibble [2 × 2]>
## 10    152     5       6 1.5607104 <tibble [5 × 2]>
## # ... with 126 more rows
```
…
