…
# Get environmental variables for 11 loci
ENV11 <- makeENV(dat11, dat11cc)
```

```
## Joining, by = c("Severity", "Region", "Source", "Year", "Host", "MLG")
```

```r
ENV11
```

```
## # A tibble: 318 × 6
##    Severity Region Source   Year   Host   MLG
##       <dbl> <fctr> <fctr> <fctr> <fctr> <int>
## 1       3.9     NE    unk   2003     GH   165
## 2       5.4     NE    unk   2003     GH   164
## 3       6.3     NY    unk   2003     GH    42
## 4       4.4     MN    wmn   2003   G122   165
## 5       4.7     MN    wmn   2003  Beryl   165
## 6       6.1     MI    wmn   2003  Beryl    30
## 7       5.5     MI    wmn   2003  Beryl    25
## 8       5.0     MI    wmn   2003  Beryl    40
## 9       5.2     MI    wmn   2003  Bunsi    27
## 10      5.3     MI    wmn   2003  Bunsi    20
## # ... with 308 more rows
```
…
# Get environmental variables for 16 loci
ENV16 <- makeENV(dat, dat16cc)
```

```
## Joining, by = c("Severity", "Region", "Source", "Year", "Host", "MLG")
```

```r
ENV16
```

```
## # A tibble: 342 × 6
##    Severity Region Source   Year   Host   MLG
##       <dbl> <fctr> <fctr> <fctr> <fctr> <int>
## 1       3.9     NE    unk   2003     GH   215
## 2       5.4     NE    unk   2003     GH   214
## 3       6.3     NY    unk   2003     GH    62
## 4       4.4     MN    wmn   2003   G122   211
## 5       4.7     MN    wmn   2003  Beryl   215
## 6       6.1     MI    wmn   2003  Beryl    17
## 7       5.5     MI    wmn   2003  Beryl    41
## 8       5.0     MI    wmn   2003  Beryl    49
## 9       5.2     MI    wmn   2003  Bunsi    15
## 10      5.3     MI    wmn   2003  Bunsi    28
## # ... with 332 more rows
```
…
