…
```
## # A tibble: 165 x 17
##      MLG     N    id    NE    NY    MN    MI    OR    WA    CO    WI    ID
##    <int> <int> <chr> <int> <int> <int> <int> <int> <int> <int> <int> <int>
##  1     1     2   586    NA    NA    NA    NA     1    NA    NA    NA    NA
##  2     2     2   501    NA    NA     1    NA    NA    NA    NA    NA    NA
##  3     3     2   502    NA    NA     1    NA    NA    NA    NA    NA    NA
##  4     4     3   500    NA    NA     1    NA    NA    NA    NA    NA    NA
##  5     5     2   585    NA    NA    NA    NA     1    NA    NA    NA    NA
##  6     6     2   596    NA    NA    NA    NA    NA    NA    NA    NA    NA
##  7     7     2   714     1    NA    NA    NA    NA    NA    NA    NA    NA
##  8     8     1   456    NA    NA    NA    NA    NA     1    NA    NA    NA
##  9     9     4   703     1    NA    NA     1    NA    NA    NA    NA    NA
## 10    10     1   482    NA    NA    NA     1    NA    NA    NA    NA    NA
## # ... with 155 more rows, and 5 more variables: Australia <int>, CA <int>,
## #   France <int>, Mexico <int>, ND <int>
```
…
