…
dists <- bind_rows(`White Mold Nurseries` = wmn_distance, 
                   `Between` = inter_distance,
                   `Other Sources` = nwmn_distance, 
                   .id = "Comparison") %>%
  mutate(Comparison = forcats::fct_inorder(Comparison)) %>%
  as_tibble()
dists
```

```
## # A tibble: 50,403 x 4
##              Comparison  from    to   distance
##                  <fctr> <chr> <chr>      <dbl>
##  1 White Mold Nurseries   445   444 0.00000000
##  2 White Mold Nurseries   446   444 0.30681818
##  3 White Mold Nurseries   447   444 0.26136364
##  4 White Mold Nurseries   448   444 0.37500000
##  5 White Mold Nurseries   449   444 0.31818182
##  6 White Mold Nurseries   450   444 0.22727273
##  7 White Mold Nurseries   451   444 0.09090909
##  8 White Mold Nurseries   452   444 0.18181818
##  9 White Mold Nurseries   453   444 0.00000000
## 10 White Mold Nurseries   454   444 0.09090909
## # ... with 50,393 more rows
```
…
